# Name,    Type, SubType,  Offset,   Size,  Flags
nvs,       data, nvs,      0x9000,   0x5000
otadata,   data, ota,      0xe000,   0x2000
ota_0,     app,  ota_0,    0x10000,  0x100000
mw_cfg,    0x40, 1,        0x110000, 0x8000
cert,      0x40, 2,        0x118000, 0x8000
ota_1,     app,  ota_1,    0x120000, 0x100000
user_data, 0x40, 0,        0x220000, 0x1E0000
